



00000000 l    d  .ARM.attributes	00000000              .ARM.attributes
00000000 l    d  .comment	00000000              .comment
00000000 l    d  .debug_abbrev	00000000              .debug_abbrev
00000000 l    d  .debug_aranges	00000000              .debug_aranges
00000000 l    d  .debug_info	00000000              .debug_info
00000000 l    d  .debug_line	00000000              .debug_line
00000000 l    d  .debug_ranges	00000000              .debug_ranges
00000000 l    df *ABS*	00000000              crtstuff.c
00000000 l    df *ABS*	00000000              crtstuff.c
00000000 l    df *ABS*	00000000              elf-init.c
00000000 l    df *ABS*	00000000              freeze.c
00000000 l    df *ABS*	00000000              init.c
00000000 l    df *ABS*	00000000              initfini.c
00000000 l    df *ABS*	00000000              initfini.c
00000000  w      *UND*	00000000              __gmon_start__
00000000  w      *UND*	00000000              _Jv_RegisterClasses
00008134 l    d  .interp	00000000              .interp
00008148 l    d  .note.ABI-tag	00000000              .note.ABI-tag
00008168 l    d  .hash	00000000              .hash
000082c8 l    d  .dynsym	00000000              .dynsym
000085d8 l    d  .dynstr	00000000              .dynstr
00008846 l    d  .gnu.version	00000000              .gnu.version
000088a8 l    d  .gnu.version_r	00000000              .gnu.version_r
000088c8 l    d  .rel.dyn	00000000              .rel.dyn
000088e8 l    d  .rel.plt	00000000              .rel.plt
000089e8 g     F .init	00000000              _init
000089e8 l    d  .init	00000000              .init
000089fc l    d  .plt	00000000              .plt
00008a10       F *UND*	00000144              is_FreezeVideo
00008a1c       F *UND*	00000004              is_GetCameraInfo
00008a28       F *UND*	00000214              is_SetFrameRate
00008a34       F *UND*	00000174              is_SaveImage
00008a40       F *UND*	000000d8              is_GetPixelClockRange
00008a4c       F *UND*	00000100              exit@@GLIBC_2.4
00008a58       F *UND*	00000044              printf@@GLIBC_2.4
00008a64       F *UND*	00000208              is_SetPixelClock
00008a70       F *UND*	0000016c              puts@@GLIBC_2.4
00008a7c       F *UND*	000000c4              perror@@GLIBC_2.4
00008a88       F *UND*	000000f4              is_GetFrameTimeRange
00008a94       F *UND*	00000418              is_SetImagePos
00008aa0       F *UND*	000002d8              abort@@GLIBC_2.4
00008aac       F *UND*	000000c0              is_GetFramesPerSecond
00008ab8       F *UND*	000000a4              is_LoadParameters
00008ac4       F *UND*	00000050              is_InitBoard
00008ad0       F *UND*	00000290              is_FreeImageMem
00008adc       F *UND*	00000024              getopt@@GLIBC_2.4
00008ae8       F *UND*	0000010c              is_SetColorMode
00008af4       F *UND*	0000004c              is_SetErrorReport
00008b00       F *UND*	000000dc              is_ExitBoard
00008b0c       F *UND*	0000014c              is_SetImageMem
00008b18       F *UND*	00000178              fwrite@@GLIBC_2.4
00008b24       F *UND*	00000020              fprintf@@GLIBC_2.4
00008b30       F *UND*	00000020              sscanf@@GLIBC_2.4
00008b3c       F *UND*	000000a4              is_GetSensorInfo
00008b48       F *UND*	000000e8              __xpg_basename@@GLIBC_2.4
00008b54       F *UND*	00000338              is_SetImageSize
00008b60       F *UND*	000000cc              is_GetCaptureErrorInfo
00008b6c       F *UND*	000001e4              is_AllocImageMem
00008b78       F *UND*	00000258              __libc_start_main@@GLIBC_2.4
00008b90 g     F .text	00000000              _start
00008b90 l    d  .text	00000000              .text
00008bc8 l     F .text	00000000              call_gmon_start
00008bec l     F .text	00000000              __do_global_dtors_aux
00008c08 l     F .text	00000000              frame_dummy
00008c44 g     F .text	000000b4              usage
00008cf8 g     F .text	00000c14              main
0000990c g     F .text	00000290              .hidden __aeabi_dmul
0000990c g     F .text	00000290              .hidden __muldf3
00009b9c g     F .text	0000020c              .hidden __aeabi_ddiv
00009b9c g     F .text	0000020c              .hidden __divdf3
00009da8 g     F .text	00000004              __libc_csu_fini
00009dac g     F .text	00000074              __libc_csu_init
00009e20 g     F .fini	00000000              _fini
00009e20 l    d  .fini	00000000              .fini
00009e30 g     O .rodata	00000004              _IO_stdin_used
00009e30 l    d  .rodata	00000000              .rodata
0000a614 g       *ABS*	00000000              __exidx_start
0000a614 l    d  .ARM.exidx	00000000              .ARM.exidx
0000a61c g       *ABS*	00000000              __exidx_end
0000a61c l    d  .eh_frame	00000000              .eh_frame
0000a61c l     O .eh_frame	00000000              __FRAME_END__
00012620 l    d  .init_array	00000000              .init_array
00012620 l       .init_array	00000000              .hidden __init_array_start
00012620 l     O .init_array	00000000              __frame_dummy_init_array_entry
00012624 l    d  .fini_array	00000000              .fini_array
00012624 l       .init_array	00000000              .hidden __init_array_end
00012624 l     O .fini_array	00000000              __do_global_dtors_aux_fini_array_entry
00012628 l    d  .jcr	00000000              .jcr
00012628 l     O .jcr	00000000              __JCR_END__
00012628 l     O .jcr	00000000              __JCR_LIST__
0001262c l    d  .dynamic	00000000              .dynamic
0001262c l     O .dynamic	00000000              .hidden _DYNAMIC
0001271c l    d  .got	00000000              .got
0001271c l     O .got	00000000              .hidden _GLOBAL_OFFSET_TABLE_
000127ac g       .data	00000000              __data_start
000127ac l    d  .data	00000000              .data
000127ac  w      .data	00000000              data_start
000127b0 g     O .data	00000000              .hidden __dso_handle
000127b4 l     O .data	0000000a              szDefaultFilename
000127c0 g       *ABS*	00000000              __bss_start
000127c0 g       *ABS*	00000000              __bss_start__
000127c0 g       *ABS*	00000000              _edata
000127c0 g     O .bss	00000004              optarg@@GLIBC_2.4
000127c0 l    d  .bss	00000000              .bss
000127c8 g     O .bss	00000004              stderr@@GLIBC_2.4
000127d0 g     O .bss	00000004              optopt@@GLIBC_2.4
000127d4 l     O .bss	00000001              completed.5422
000127d8 g       *ABS*	00000000              _bss_end__
000127d8 g       *ABS*	00000000              __bss_end__
000127d8 g       *ABS*	00000000              _end
000127d8 g       *ABS*	00000000              __end__
SYMBOL TABLE:
.//ueye_testsuite/007_freeze/BEAGLEBOARD/007_freeze:     file format elf32-littlearm
