<?xml version="1.0" encoding="UTF-8"?>
<session version="1.0">
<refactoring comment="Delete resource &apos;test_socket&apos;" deleteContents="true" description="Delete resource &apos;test_socket&apos;" element1="/test_socket" flags="7" id="org.eclipse.ltk.core.refactoring.delete.resources" resources="1" stamp="1389187305449"/>
</session>