10:52:59 **** Incremental Build of configuration Debug for project TestCPP ****
Info: Internal Builder is used for build
/home/embedded/Development/Toolchain/timesys/toolchain/bin/armv7l-timesys-linux-gnueabi-gcc -O0 -Wall -Wa,-adhlns=$@.lst -c -fmessage-length=0 -pthread -mcpu=cortex-a8 -mthumb -mfloat-abi=softfp -mfpu=neon -g3 -gdwarf-2 -o src/mxc_ipu_lib.o ../src/mxc_ipu_lib.c 
/home/embedded/Development/Toolchain/timesys/toolchain/bin/armv7l-timesys-linux-gnueabi-g++ -Wl,-Map,TestCPP.map -mcpu=cortex-a8 -mthumb -mfloat-abi=softfp -mfpu=neon -g3 -gdwarf-2 -o TestCPP.elf src/rot_ex1.o src/mxc_ipu_lib.o src/mxc_ipu_hl_lib.o 
/home/embedded/Development/Toolchain/timesys/toolchain/bin/../../toolchain/lib/crt1.o: In function `_start':
init.c:(.text+0x34): undefined reference to `main'
src/mxc_ipu_hl_lib.o: In function `mxc_ipu_lib_lock_shm':
/home/embedded/Development/Workspace Eclipse/TestCPP/Debug/../src/mxc_ipu_hl_lib.c:2359: undefined reference to `sem_wait'
src/mxc_ipu_hl_lib.o: In function `mxc_ipu_lib_unlock_shm':
/home/embedded/Development/Workspace Eclipse/TestCPP/Debug/../src/mxc_ipu_hl_lib.c:2364: undefined reference to `sem_post'
src/mxc_ipu_hl_lib.o: In function `mxc_ipu_lib_lock_all':
/home/embedded/Development/Workspace Eclipse/TestCPP/Debug/../src/mxc_ipu_hl_lib.c:2369: undefined reference to `sem_wait'
/home/embedded/Development/Workspace Eclipse/TestCPP/Debug/../src/mxc_ipu_hl_lib.c:2370: undefined reference to `sem_wait'
src/mxc_ipu_hl_lib.o: In function `mxc_ipu_lib_unlock_all':
/home/embedded/Development/Workspace Eclipse/TestCPP/Debug/../src/mxc_ipu_hl_lib.c:2375: undefined reference to `sem_post'
/home/embedded/Development/Workspace Eclipse/TestCPP/Debug/../src/mxc_ipu_hl_lib.c:2376: undefined reference to `sem_post'
src/mxc_ipu_hl_lib.o: In function `mxc_ipu_lib_lock_task':
/home/embedded/Development/Workspace Eclipse/TestCPP/Debug/../src/mxc_ipu_hl_lib.c:2384: undefined reference to `sem_wait'
/home/embedded/Development/Workspace Eclipse/TestCPP/Debug/../src/mxc_ipu_hl_lib.c:2386: undefined reference to `sem_wait'
src/mxc_ipu_hl_lib.o: In function `mxc_ipu_lib_unlock_task':
/home/embedded/Development/Workspace Eclipse/TestCPP/Debug/../src/mxc_ipu_hl_lib.c:2394: undefined reference to `sem_post'
/home/embedded/Development/Workspace Eclipse/TestCPP/Debug/../src/mxc_ipu_hl_lib.c:2396: undefined reference to `sem_post'
src/mxc_ipu_hl_lib.o: In function `mxc_ipu_lib_ipc_init':
/home/embedded/Development/Workspace Eclipse/TestCPP/Debug/../src/mxc_ipu_hl_lib.c:2475: undefined reference to `sem_init'
/home/embedded/Development/Workspace Eclipse/TestCPP/Debug/../src/mxc_ipu_hl_lib.c:2483: undefined reference to `sem_init'
/home/embedded/Development/Workspace Eclipse/TestCPP/Debug/../src/mxc_ipu_hl_lib.c:2491: undefined reference to `sem_init'
collect2: ld returned 1 exit status

10:52:59 Build Finished (took 513ms)

